%YAML 1.1
%TAG !u! tag:unity3d.com,2011:
--- !u!114 &11400000
MonoBehaviour:
  m_ObjectHideFlags: 0
  m_CorrespondingSourceObject: {fileID: 0}
  m_PrefabInstance: {fileID: 0}
  m_PrefabAsset: {fileID: 0}
  m_GameObject: {fileID: 0}
  m_Enabled: 1
  m_EditorHideFlags: 0
  m_Script: {fileID: 11500000, guid: e709a75a52bdd8a4fb2e235a6a6f23b0, type: 3}
  m_Name: 1_16
  m_EditorClassIdentifier: 
  _zoneIndex: 0
  _caveIndex: 15
  _timeToReach: 900
  _possibleTreasures:
  - _treasure: {fileID: 11400000, guid: cec95a16fb234e142a2349eb12cee805, type: 2}
    _chance: 1
