%YAML 1.1
%TAG !u! tag:unity3d.com,2011:
--- !u!114 &11400000
MonoBehaviour:
  m_ObjectHideFlags: 0
  m_CorrespondingSourceObject: {fileID: 0}
  m_PrefabInstance: {fileID: 0}
  m_PrefabAsset: {fileID: 0}
  m_GameObject: {fileID: 0}
  m_Enabled: 1
  m_EditorHideFlags: 0
  m_Script: {fileID: 11500000, guid: 245092d23a2b2ae45a86edc3897bcfa8, type: 3}
  m_Name: _1GoldenSkull
  m_EditorClassIdentifier: 
  _treasureName: Calavera Dorada
  _treasureRarity: 0
  _treasureTier: 1
  _goldPerTick: 1
  _treasureSprite: {fileID: 21300000, guid: 1543c56e92c8aa6449f357215419e238, type: 3}
  _description: Dicen que por dentro es de chocolate
